STAT 301 Finaly Project
…
 Certain colleges dominate the scene in the NCAA on a yearly basis, such as Duke and Kentucky. But do these schools hone players talent that translate to the NBA level? To measure how good a NBA players is, we first decided to measure their Player Efficiency Rating (PER). We decided to take the median PER for players who went to each college that was recorded in the Players dataframe. 

#PER

#median PER
PER_stats <- Seasons_Stats %>%
  left_join(Players, by = "Player") %>%
  group_by(collage) %>%
  summarize(med_PER = median(PER, na.rm = TRUE)) %>%
  arrange(desc(med_PER))

PER_stats

## # A tibble: 423 x 2
##                                collage med_PER
##                                  <chr>   <dbl>
##  1         United States Naval Academy   26.85
##  2               Belmont Abbey College   22.20
##  3             Truman State University   22.00
##  4                    Master's College   21.25
##  5 University of Wisconsin-River Falls   21.10
##  6                     Wheaton College   20.80
##  7             Gardner-Webb University   20.20
##  8            Indiana State University   20.20
##  9    Trinity Valley Community College   19.00
## 10   Lawrence Technological University   18.90
## # ... with 413 more rows
…
#find proportion of seasons from each college
prop_seasons <- Seasons_Stats %>%
  left_join(Players, by = "Player") %>%
  group_by(collage) %>%
  count() %>%
  mutate(prop_seasons = n /24691)

#join back to average PER, weighted top colleges
PER_stats %>%
  left_join(prop_seasons, by = "collage") %>%
  mutate(wPER = med_PER * prop_seasons) %>%
  arrange(desc(wPER))

## # A tibble: 423 x 5
##                                  collage med_PER     n prop_seasons
##                                    <chr>   <dbl> <int>        <dbl>
##  1                                  <NA>   13.40  2290   0.09274634
##  2 University of California, Los Angeles   13.35   627   0.02539387
##  3          University of North Carolina   13.70   556   0.02251833
##  4                University of Kentucky   12.85   533   0.02158681
##  5                  University of Kansas   12.50   410   0.01660524
##  6                       Duke University   14.00   354   0.01433721
##  7                University of Michigan   13.85   316   0.01279819
##  8             Michigan State University   13.20   315   0.01275768
##  9                 University of Arizona   12.60   324   0.01312219
## 10                 St. John's University   13.20   300   0.01215018
## # ... with 413 more rows, and 1 more variables: wPER <dbl>
…
#median win shares
WS_stats <- Seasons_Stats %>%
  left_join(Players, by = "Player") %>%
  group_by(collage) %>%
  summarize(med_WS = median(WS, na.rm = TRUE)) %>%
  arrange(desc(med_WS))

#weighted win shares
WS_stats %>%
  left_join(prop_seasons, by = "collage") %>%
  mutate(wWS = med_WS * prop_seasons) %>%
  arrange(desc(wWS))

## # A tibble: 423 x 5
##                                  collage med_WS     n prop_seasons
##                                    <chr>  <dbl> <int>        <dbl>
##  1                                  <NA>   1.80  2290   0.09274634
##  2 University of California, Los Angeles   1.80   627   0.02539387
##  3          University of North Carolina   2.00   556   0.02251833
##  4                University of Kentucky   1.60   533   0.02158681
##  5                       Duke University   2.20   354   0.01433721
##  6                 Ohio State University   2.30   265   0.01073266
##  7       Georgia Institute of Technology   2.00   289   0.01170467
##  8                University of Michigan   1.80   316   0.01279819
##  9                 University of Arizona   1.65   324   0.01312219
## 10              University of Notre Dame   1.70   306   0.01239318
## # ... with 413 more rows, and 1 more variables: wWS <dbl>
…
